{
    "content": {
        "images": "{\"page-cover-image\":{\"0\":\"\/storage\/media\/image\/jpeg\/1569821828_5_.jpeg\"}}",
        "page-cover-image": "<div  class=\"tv-page-title tv-fixed-img\" data-ce-tag=\"img-fixture\" data-fixture data-name=\"page-cover-image\" style=\"position: absolute; top: 0px; width: 100%; padding: 187px 0px; background-image:url('\/storage\/media\/image\/jpeg\/1569821828_5_.jpeg');\">\n    <img src=\"\/storage\/media\/image\/jpeg\/1569821828_5_.jpeg\"alt=\"\">\n<\/div>",
        "about-content": "<p class=\"tv-font-14 tv-letter-spacing-1 tv-offspace-botttom-30\">\n    At the core, Prestige Intercontinental is a value-driven holding company focused on profitably solving major world economic problems through ventures, investments and projects in key sectors, including energy, oil &amp; gas, real estate, agriculture, mineral exploration, and health.\n<\/p>\n<p class=\"tv-font-14 tv-letter-spacing-1 tv-offspace-botttom-20\">\n    Our goal is to build societies of the future, improve quality of lives, and create wealth through subsidiaries and ventures that leverage partnerships with experts, industry leaders, key stakeholders and decision makers in stirring action and rallying resources to explore opportunities for sustainable change.\n<\/p>\n<p class=\"tv-font-14 tv-offspace-botttom-30 tv-letter-spacing-1\">\n    We are determined to bring innovation into various aspects of industry and economy with global outlook and local relevance. We have our eyes on the future and we see no barriers in inventing it.\n<\/p>\n<p class=\"tv-offspace-botttom-30 tv-letter-spacing-1 tv-font-weight-700 tv-red-text tv-font-14\">\n    Let us work together to build the economies of tomorrow\n<\/p>",
        "we-are-prestige-heading": "<h1>\n    We are <span class=\"tv-font-90per tv-font-weight-700 tv-red-text text-capitalize tv-letter-spacing-2\">Prestige<\/span>\n<\/h1>",
        "feature-area-heading-content-1": "<p class=\"text-white\">\n    Our goal is to build societies of the future, improve quality of lives, and create wealth through subsidiaries and ventures that leverage partnerships with key stakeholders.\n<\/p>",
        "feature-area-heading-content-2": "<p class=\"text-white\">\n    We are determined to bring innovation into various aspects of industry and economy with global outlook. We have our attention on reinventing the future\n<\/p>",
        "feature-area-heading-content-3": "<p class=\"text-white\">\n    Our eyes are ever open to the opportunities every challenge presents and we are poised to make the most of the opportunities with local content and global relevance\n<\/p>"
    },
    "title": "We are prestige",
    "description": "Prestige Intercontinental",
    "slug": "we-are-prestige"
}